{
    "posts": [
        {
            "id": 1,
            "title": "Meus Post 1",
            "text": "Este eh o meu post 1 bla bla",
            "authorId": 1
        },
        {
            "id": 2,
            "title": "Meus Post 2",
            "text": "Este eh o meu post 2 bla bla",
            "authorId": 1
        },
        {
            "id": 3,
            "title": "Meus Post 3",
            "text": "Este eh o meu post 3 bla bla",
            "authorId": 2
        }
    ]
}